{
  "ruleChain": {
    "additionalInfo": {
      "description": ""
    },
    "name": "humidity chain",
    "type": "CORE",
    "firstRuleNodeId": null,
    "root": false,
    "debugMode": false,
    "configuration": null
  },
  "metadata": {
    "firstNodeIndex": 5,
    "nodes": [
      {
        "additionalInfo": {
          "description": "",
          "layoutX": 543,
          "layoutY": 135
        },
        "type": "org.thingsboard.rule.engine.action.TbCreateAlarmNode",
        "name": "humi is high",
        "debugMode": false,
        "configuration": {
          "alarmDetailsBuildJs": "var details = {};\nif (metadata.prevAlarmDetails) {\n    details = JSON.parse(metadata.prevAlarmDetails);\n    //remove prevAlarmDetails from metadata\n    delete metadata.prevAlarmDetails;\n    //now metadata is the same as it comes IN this rule node\n}\n\n\nreturn details;",
          "useMessageAlarmData": false,
          "overwriteAlarmDetails": false,
          "alarmType": "General Alarm",
          "severity": "CRITICAL",
          "propagate": true,
          "relationTypes": [],
          "propagateToOwner": true,
          "propagateToTenant": true,
          "dynamicSeverity": false
        }
      },
      {
        "additionalInfo": {
          "description": "",
          "layoutX": 519,
          "layoutY": 234
        },
        "type": "org.thingsboard.rule.engine.action.TbClearAlarmNode",
        "name": "humi is fine",
        "debugMode": false,
        "configuration": {
          "alarmType": "General Alarm",
          "alarmDetailsBuildJs": "var details = {};\nif (metadata.prevAlarmDetails) {\n    details = JSON.parse(metadata.prevAlarmDetails);\n    //remove prevAlarmDetails from metadata\n    delete metadata.prevAlarmDetails;\n    //now metadata is the same as it comes IN this rule node\n}\n\n\nreturn details;"
        }
      },
      {
        "additionalInfo": {
          "description": "",
          "layoutX": 362,
          "layoutY": 43
        },
        "type": "org.thingsboard.rule.engine.transform.TbTransformMsgNode",
        "name": "humidity to metadata",
        "debugMode": false,
        "configuration": {
          "jsScript": "metadata.humidity = msg.humidity;\nreturn {msg: msg, metadata: metadata, msgType: msgType};"
        }
      },
      {
        "additionalInfo": {
          "description": "",
          "layoutX": 727,
          "layoutY": 46
        },
        "type": "org.thingsboard.rule.engine.mail.TbMsgToEmailNode",
        "name": "Hum to Email",
        "debugMode": true,
        "configuration": {
          "fromTemplate": "vonmullenbrownl@cardiff.ac.uk",
          "toTemplate": "vonmullenbrownl@cardiff.ac.uk",
          "ccTemplate": "",
          "bccTemplate": null,
          "subjectTemplate": "WARNING! Environmental Alert Detected in Your Monitoring System",
          "mailBodyType": "false",
          "isHtmlTemplate": null,
          "bodyTemplate": "Your plant has humidity of ${humidity}, which is not optimal for plants, please see smart plant display to see if your plant needs watering or if plant has too much water!"
        }
      },
      {
        "additionalInfo": {
          "description": "",
          "layoutX": 914,
          "layoutY": 127
        },
        "type": "org.thingsboard.rule.engine.mail.TbSendEmailNode",
        "name": "Send Email",
        "debugMode": false,
        "configuration": {
          "useSystemSmtpSettings": false,
          "smtpProtocol": "smtp",
          "smtpHost": "smtp.mandrillapp.com",
          "smtpPort": 587,
          "timeout": 10000,
          "enableTls": true,
          "tlsVersion": "TLSv1.2",
          "enableProxy": false,
          "proxyHost": null,
          "proxyPort": null,
          "proxyUser": null,
          "proxyPassword": null,
          "username": "Cardiff University",
          "password": "md-g2n33goh1BpJHHdp-n7VKg"
        }
      },
      {
        "additionalInfo": {
          "description": "",
          "layoutX": 308,
          "layoutY": 153
        },
        "type": "org.thingsboard.rule.engine.filter.TbJsFilterNode",
        "name": "humidity and temp check",
        "debugMode": false,
        "configuration": {
          "jsScript": "return msg.humidity > 70 || msg.humidity < 25;\n\n"
        }
      }
    ],
    "connections": [
      {
        "fromIndex": 0,
        "toIndex": 3,
        "type": "Created"
      },
      {
        "fromIndex": 2,
        "toIndex": 0,
        "type": "Success"
      },
      {
        "fromIndex": 3,
        "toIndex": 4,
        "type": "Success"
      },
      {
        "fromIndex": 5,
        "toIndex": 1,
        "type": "False"
      },
      {
        "fromIndex": 5,
        "toIndex": 2,
        "type": "True"
      }
    ],
    "ruleChainConnections": null
  }
}