{
  "ruleChain": {
    "additionalInfo": {
      "description": ""
    },
    "name": "temperature chain",
    "type": "CORE",
    "firstRuleNodeId": null,
    "root": false,
    "debugMode": false,
    "configuration": null
  },
  "metadata": {
    "firstNodeIndex": 5,
    "nodes": [
      {
        "additionalInfo": {
          "description": "",
          "layoutX": 584,
          "layoutY": 186
        },
        "type": "org.thingsboard.rule.engine.action.TbCreateAlarmNode",
        "name": "temperature",
        "debugMode": false,
        "configuration": {
          "alarmDetailsBuildJs": "var details = {};\nif (metadata.prevAlarmDetails) {\n    details = JSON.parse(metadata.prevAlarmDetails);\n    //remove prevAlarmDetails from metadata\n    delete metadata.prevAlarmDetails;\n    //now metadata is the same as it comes IN this rule node\n}\n\n\nreturn details;",
          "useMessageAlarmData": false,
          "overwriteAlarmDetails": false,
          "alarmType": "General Alarm",
          "severity": "CRITICAL",
          "propagate": true,
          "relationTypes": [],
          "propagateToOwner": true,
          "propagateToTenant": true,
          "dynamicSeverity": false
        }
      },
      {
        "additionalInfo": {
          "description": "",
          "layoutX": 560,
          "layoutY": 285
        },
        "type": "org.thingsboard.rule.engine.action.TbClearAlarmNode",
        "name": "temperature",
        "debugMode": false,
        "configuration": {
          "alarmType": "General Alarm",
          "alarmDetailsBuildJs": "var details = {};\nif (metadata.prevAlarmDetails) {\n    details = JSON.parse(metadata.prevAlarmDetails);\n    //remove prevAlarmDetails from metadata\n    delete metadata.prevAlarmDetails;\n    //now metadata is the same as it comes IN this rule node\n}\n\n\nreturn details;"
        }
      },
      {
        "additionalInfo": {
          "description": "",
          "layoutX": 403,
          "layoutY": 94
        },
        "type": "org.thingsboard.rule.engine.transform.TbTransformMsgNode",
        "name": "temperature to metadata",
        "debugMode": false,
        "configuration": {
          "jsScript": "metadata.temperature = msg.temperature;\nreturn {msg: msg, metadata: metadata, msgType: msgType};"
        }
      },
      {
        "additionalInfo": {
          "description": "",
          "layoutX": 768,
          "layoutY": 97
        },
        "type": "org.thingsboard.rule.engine.mail.TbMsgToEmailNode",
        "name": "temperature to Email",
        "debugMode": true,
        "configuration": {
          "fromTemplate": "vonmullenbrownl@cardiff.ac.uk",
          "toTemplate": "vonmullenbrownl@cardiff.ac.uk",
          "ccTemplate": "",
          "bccTemplate": null,
          "subjectTemplate": "WARNING THE PLANT IS AT A BAD TEMPERATURE LEVEL.",
          "mailBodyType": "false",
          "isHtmlTemplate": null,
          "bodyTemplate": "your plant has temperature ${temperature}, This plant is in a bad spot move it to a more optimal place."
        }
      },
      {
        "additionalInfo": {
          "description": "",
          "layoutX": 955,
          "layoutY": 178
        },
        "type": "org.thingsboard.rule.engine.mail.TbSendEmailNode",
        "name": "Send Email",
        "debugMode": false,
        "configuration": {
          "useSystemSmtpSettings": false,
          "smtpProtocol": "smtp",
          "smtpHost": "smtp.mandrillapp.com",
          "smtpPort": 587,
          "timeout": 10000,
          "enableTls": true,
          "tlsVersion": "TLSv1.2",
          "enableProxy": false,
          "proxyHost": null,
          "proxyPort": null,
          "proxyUser": null,
          "proxyPassword": null,
          "username": "Cardiff University",
          "password": "md-g2n33goh1BpJHHdp-n7VKg"
        }
      },
      {
        "additionalInfo": {
          "description": "",
          "layoutX": 349,
          "layoutY": 204
        },
        "type": "org.thingsboard.rule.engine.filter.TbJsFilterNode",
        "name": "temp check",
        "debugMode": false,
        "configuration": {
          "jsScript": "return msg.temperature > 28 || msg.temperature < 15;\n\n"
        }
      }
    ],
    "connections": [
      {
        "fromIndex": 0,
        "toIndex": 3,
        "type": "Created"
      },
      {
        "fromIndex": 2,
        "toIndex": 0,
        "type": "Success"
      },
      {
        "fromIndex": 3,
        "toIndex": 4,
        "type": "Success"
      },
      {
        "fromIndex": 5,
        "toIndex": 1,
        "type": "False"
      },
      {
        "fromIndex": 5,
        "toIndex": 2,
        "type": "True"
      }
    ],
    "ruleChainConnections": null
  }
}